
<svg width="80px" height="37px" viewBox="33 28 80 37" version="1.1" xmlns="http://www.w3.org/2000/svg" xmlns:xlink="http://www.w3.org/1999/xlink">
    <!-- Generator: Sketch 40.3 (33839) - http://www.bohemiancoding.com/sketch -->
    <desc>Created with Sketch.</desc>
    <defs></defs>
    <path d="M77.9338302,63.6217803 C65.6531683,64.0421457 65.2111454,58.194381 53.2949077,54.7537584 C41.3786699,51.3131358 34.6128191,56.1650288 34.6128191,56.1650288 C34.6128191,56.1650288 41.6433261,41.3276557 46.8301365,38.4337902 C54.526105,34.1399957 70.7626651,47.8518579 85.3214666,46.5168912 C98.9963974,45.2629708 111.5,30.5 111.5,30.5 C111.5,30.5 102.347748,62.7860953 77.9338302,63.6217803 Z" id="Line" stroke="#979797" stroke-width="1" stroke-linecap="square" fill="none"></path>
    <path d="M99.965555,33.0135885 C99.965555,33.0135885 98.8250169,36.4255443 94.8474992,40.3610884 C90.8699815,44.2966324 85.4908599,46.3613054 85.4908599,46.3613054 L97.3668651,42.0089335 L99.965555,33.0135885 Z" id="Line" stroke="#979797" stroke-width="1" stroke-linecap="square" fill="none"></path>
</svg>